<svg xmlns="http://www.w3.org/2000/svg" width="173" height="82" viewBox="0 0 173 82">
    <g fill="none" fill-rule="evenodd">
        <path d="M-70-21h1440v7000H-70z"/>
        <g fill="#F68351" fill-rule="nonzero">
            <path d="M19.11 44.442c-.148.818.452 1.592 1.34 1.729.888.136 1.728-.417 1.876-1.235l3.032-16.76c.32-1.774-1.24-3.095-3.126-2.66l-2.997.69c-.873.201-1.404 1.017-1.186 1.822.218.804 1.104 1.294 1.977 1.093l1.936-.446-2.852 15.767zM60.237 38.616c1.84-.461 2.93-1.047 2.802-2.413.331-2.577-3.869-5.525-7.103-4.43-.078.026-.155.059-.227.098-2.19 1.162-3.392 2.848-3.513 4.702-.062.955.161 1.953.684 2.947.04.076.082.152.125.228 1.075 3.21 4.555 4.446 9.68 3.86l.132-.02c1.418-.287 3.044-.896 4.856-1.776a48.35 48.35 0 0 0 3.349-1.807 71.654 71.654 0 0 0 5.57-3.643c.672-.494.807-1.429.303-2.087a1.539 1.539 0 0 0-2.127-.297c-.07.05-.206.15-.404.29a68.651 68.651 0 0 1-4.904 3.179c-1.088.64-2.14 1.21-3.135 1.693-1.568.761-2.946 1.28-4.058 1.514-3.423.381-5.411-.161-6.165-1.392a2.273 2.273 0 0 1-.239-.537 1.477 1.477 0 0 0-.15-.34c-.45-.741-.593-1.42-.406-2.042.197-.657.763-1.25 1.726-1.784.665-.178 1.445.032 2.157.564.223.166.418.351.568.53a2.142 2.142 0 0 1 .23.334.8.8 0 0 1 .032.074.393.393 0 0 1-.01-.059.754.754 0 0 1 .048-.316 1.467 1.467 0 0 0-.045.797 1.102 1.102 0 0 1 .172-.882.588.588 0 0 1 .151-.162c-.1.058-.3.134-.578.215a8.222 8.222 0 0 1-.274.073c-.878.22-2.156.412-3.711.57l-.466.046a84.809 84.809 0 0 1-3.297.24 94.152 94.152 0 0 1-1.706.079c-.839.026-1.497.715-1.47 1.538.027.823.73 1.469 1.568 1.442l.495-.019a97.237 97.237 0 0 0 1.983-.103 81.989 81.989 0 0 0 3.206-.257c1.7-.173 3.1-.384 4.15-.647z"/>
            <path d="M84.587 37.53c.054.242.084.377.116.513.051.214.1.403.156.588.696 2.315 2.402 3.682 5.74 3.876 3.586.162 7.323-.61 11.013-1.99a37.329 37.329 0 0 0 3.206-1.37c.586-.283 1.01-.508 1.249-.644.73-.416.952-1.293.496-1.959-.455-.666-1.417-.868-2.147-.453-.18.103-.541.294-1.06.546-.877.425-1.86.852-2.925 1.25-3.303 1.234-6.615 1.919-9.655 1.781-1.94-.113-2.556-.606-2.911-1.789-.07-.23-.084-.29-.225-.92-.445-1.984-1.146-2.979-3.174-2.979-1.543 0-3.175.808-5.575 2.432-.314.213-.642.44-1.025.709l-.758.532a37.194 37.194 0 0 1 .364-.543c.46-.664.244-1.542-.483-1.962-.728-.42-1.69-.222-2.15.441a35.412 35.412 0 0 0-1.204 1.877c-.125.21-.243.413-.353.61-.4.715-.688 1.326-.846 1.839-.373 1.207-.218 2.314 1.367 2.572.142.023.287.029.43.015 1.242-.114 1.285-.14 5.535-3.129.37-.26.682-.476.98-.678 1.768-1.196 3.016-1.825 3.649-1.87.05.128.11.345.19.704z"/>
            <path d="M114.187 37.53c.054.242.084.377.116.513.051.214.1.403.156.588.696 2.315 2.402 3.682 5.74 3.876 3.586.162 7.323-.61 11.013-1.99a37.329 37.329 0 0 0 3.206-1.37c.586-.283 1.01-.508 1.249-.644.73-.416.952-1.293.496-1.959-.455-.666-1.417-.868-2.147-.453-.18.103-.541.294-1.06.546-.877.425-1.86.852-2.925 1.25-3.303 1.234-6.615 1.919-9.655 1.781-1.94-.113-2.556-.606-2.911-1.789-.07-.23-.084-.29-.225-.92-.445-1.984-1.146-2.979-3.174-2.979-1.543 0-3.175.808-5.575 2.432-.314.213-.642.44-1.025.709l-.758.532a37.194 37.194 0 0 1 .364-.543c.46-.664.244-1.542-.483-1.962-.728-.42-1.69-.222-2.15.441a35.412 35.412 0 0 0-1.204 1.877c-.125.21-.243.413-.353.61-.4.715-.688 1.326-.846 1.839-.373 1.207-.218 2.314 1.367 2.572.142.023.287.029.43.015 1.242-.114 1.285-.14 5.535-3.129.37-.26.682-.476.98-.678 1.768-1.196 3.016-1.825 3.649-1.87.05.128.11.345.19.704z"/>
            <path d="M139.762 60.616c-2.052 3.329-3.447 6.415-3.906 8.586-.198.938-.199 1.615-.069 1.944.039.097.033.094.27.094.578 0 1.838-1.744 3.144-5.056.928-2.352 1.854-5.354 2.765-8.883a58.745 58.745 0 0 0-2.204 3.315zm5.847-20.587c.127-.727.248-1.429.362-2.103-.717.56-1.44 1.11-2.155 1.64-.451.335-.892.656-1.32.96-2.791 1.981-4.837 3.156-6.223 3.36-.136.02-.273.02-.41.003-2.598-.339-3.162-2.56-2.54-5.37a16.18 16.18 0 0 1 .595-2.004c.294-.81.588-1.48.792-1.895a1.496 1.496 0 0 1 2.014-.685 1.526 1.526 0 0 1 .678 2.035 18.949 18.949 0 0 0-.662 1.59 13.198 13.198 0 0 0-.483 1.621c-.159.716-.19 1.284-.11 1.604.872-.277 2.546-1.272 4.62-2.744.412-.293.836-.601 1.272-.924a113.906 113.906 0 0 0 4.67-3.662c.198-.163.337-.28.409-.34 1.061-.893 2.653.013 2.448 1.393l-.067.44-.194 1.23a300.666 300.666 0 0 1-1.825 10.24 245.554 245.554 0 0 1-1.582 7.447c-3.04 13.189-5.889 20.412-9.842 20.412-2.875 0-3.834-2.422-3.14-5.71.543-2.569 2.074-5.956 4.295-9.557a62.955 62.955 0 0 1 6.375-8.59 57.153 57.153 0 0 1 3.894-4c2.895-2.692 5.945-4.916 8.953-6.412a1.496 1.496 0 0 1 2.012.691c.367.753.06 1.663-.684 2.034-3.839 1.91-7.822 5.182-11.412 9.132a59.86 59.86 0 0 0-4.383 5.436c.337-1.305.672-2.682 1.005-4.125.208-.905.413-1.825.615-2.755a274.396 274.396 0 0 0 2.023-10.392zM31.513 36.147l.351-.242a301.151 301.151 0 0 1 4.74-3.175c3.914-2.568 8.001-5.135 12.058-7.53 2.1-1.24 4.142-2.402 6.106-3.474C60.916 18.374 66.084 16.04 69.904 15a1.525 1.525 0 0 0 1.074-1.875 1.535 1.535 0 0 0-1.884-1.07c-4.104 1.119-9.46 3.538-15.8 6.995a210.14 210.14 0 0 0-6.198 3.526 305.599 305.599 0 0 0-12.18 7.607 304.207 304.207 0 0 0-4.795 3.21l-.365.253a1.521 1.521 0 0 0-.38 2.125 1.54 1.54 0 0 0 2.137.377z"/>
            <path d="M29.296 36.166c.098.17.283.467.551.876.44.67.964 1.414 1.568 2.213a48.681 48.681 0 0 0 6.106 6.68c3.512 3.184 7.409 5.75 11.684 7.47.772.311 1.658-.043 1.979-.79.32-.747-.045-1.605-.817-1.916-3.915-1.575-7.514-3.946-10.777-6.904a45.742 45.742 0 0 1-5.732-6.272 38.398 38.398 0 0 1-1.457-2.055c-.24-.364-.396-.617-.47-.743-.41-.704-1.333-.953-2.061-.555a1.44 1.44 0 0 0-.574 1.996z"/>
        </g>
        <path d="M-90-11h1479V89H-90z"/>
    </g>
</svg>
