<svg xmlns="http://www.w3.org/2000/svg" width="41" height="35" viewBox="0 0 41 35">
    <path fill="#000" fill-rule="evenodd" d="M35.432 5.422c1.702-1.07 3.008-2.767 3.62-4.788a16.014 16.014 0 0 1-5.233 2.1C32.32 1.05 30.177 0 27.806 0c-4.55 0-8.237 3.876-8.237 8.656 0 .68.068 1.34.21 1.972-6.846-.362-12.917-3.804-16.983-9.045A8.973 8.973 0 0 0 1.68 5.937c0 3.002 1.454 5.652 3.666 7.207a7.968 7.968 0 0 1-3.735-1.082v.107c0 4.195 2.839 7.695 6.613 8.488a7.698 7.698 0 0 1-2.174.304c-.53 0-1.049-.052-1.548-.153 1.046 3.437 4.09 5.944 7.697 6.01-2.822 2.324-6.375 3.706-10.234 3.706A15.62 15.62 0 0 1 0 30.405c3.647 2.455 7.977 3.889 12.63 3.889 15.159 0 23.443-13.192 23.443-24.632 0-.376-.005-.75-.021-1.12a17.183 17.183 0 0 0 4.111-4.483 15.838 15.838 0 0 1-4.731 1.363z"/>
</svg>
